[gd_scene load_steps=4 format=2]

[ext_resource path="res://game/interface/fonts/PetitaLight.ttf" type="DynamicFontData" id=1]
[ext_resource path="res://game/utils/ButtonRect.gd" type="Script" id=2]


[sub_resource type="DynamicFont" id=1]
size = 42
font_data = ExtResource( 1 )

[node name="ButtonRect" type="ColorRect"]
margin_left = 42.977
margin_top = 146.495
margin_right = 150.977
margin_bottom = 168.495
script = ExtResource( 2 )
__meta__ = {
"_edit_use_anchors_": false
}

[node name="Text" type="Label" parent="."]
anchor_left = 0.5
anchor_top = 0.5
anchor_right = 0.5
anchor_bottom = 0.5
margin_left = -26.0
margin_top = -9.5
margin_right = 26.0
margin_bottom = 9.5
rect_scale = Vector2( 0.4, 0.4 )
custom_colors/font_color = Color( 0, 0, 0, 1 )
custom_fonts/font = SubResource( 1 )
text = "Replace"
align = 1
__meta__ = {
"_edit_use_anchors_": false
}

[connection signal="mouse_entered" from="." to="." method="_on_ButtonRect_mouse_entered"]
[connection signal="mouse_exited" from="." to="." method="_on_ButtonRect_mouse_exited"]
