[gd_scene load_steps=2 format=2]

[ext_resource path="res://game/utils/spawner/item_spawner.gd" type="Script" id=1]

[node name="ItemSpawner" type="Node2D"]
script = ExtResource( 1 )

[node name="TimerSpike" type="Timer" parent="."]

[node name="TimerFlask" type="Timer" parent="."]
wait_time = 10.0
autostart = true
