[gd_resource type="DynamicFont" load_steps=2 format=2]

[ext_resource path="res://kitargo_splash/Kultros-Regular.ttf" type="DynamicFontData" id=1]

[resource]
size = 148
extra_spacing_char = 2
font_data = ExtResource( 1 )
