[gd_scene load_steps=4 format=2]

[ext_resource path="res://game/utils/CustomCheckBox.tscn" type="PackedScene" id=2]
[ext_resource path="res://game/utils/ButtonRect.tscn" type="PackedScene" id=3]

[sub_resource type="GDScript" id=1]
script/source = "extends Node2D


onready var chk_box_music: TextureButton = get_node(\"ColorRect/VBoxContainer/ChkBoxMusic/CheckBox\")
onready var chk_box_sound: TextureButton = get_node(\"ColorRect/VBoxContainer/ChkBoxFx/CheckBox\")
onready var chk_box_rumble: TextureButton = get_node(\"ColorRect/VBoxContainer/ChkBoxRumble/CheckBox\")


func _ready():
	chk_box_rumble.pressed = GameSettings.is_rumble_enabled
	chk_box_sound.pressed = GameSettings.is_fx_enabled
	chk_box_music.pressed = GameSettings.is_music_enabled
	
func _is_left_mouse_click(input: InputEventMouseButton) -> bool:
	return (input is InputEventMouseButton 
	and input.button_index == BUTTON_LEFT 
	and input.pressed)

func _update_settings() -> void:
	GameSettings.is_fx_enabled = chk_box_sound.pressed
	GameSettings.is_music_enabled = chk_box_music.pressed
	GameSettings.is_rumble_enabled = chk_box_rumble.pressed


func _on_ButtonMainMenu_gui_input(event):
	_update_settings()
	if _is_left_mouse_click(event):
		var _x = get_tree().change_scene(\"res://scenes/StartScreen.tscn\")
"

[node name="GameSettings" type="Node2D"]
script = SubResource( 1 )

[node name="ColorRect" type="ColorRect" parent="."]
margin_left = -1.0
margin_top = -4.0
margin_right = 201.0
margin_bottom = 255.0
color = Color( 0.0235294, 0.305882, 0.403922, 1 )

[node name="VBoxContainer" type="VBoxContainer" parent="ColorRect"]
anchor_right = 1.0
anchor_bottom = 1.0
margin_left = 43.0
margin_top = 33.0
margin_right = -64.0
margin_bottom = -149.0
__meta__ = {
"_edit_use_anchors_": false
}

[node name="ChkBoxMusic" parent="ColorRect/VBoxContainer" instance=ExtResource( 2 )]
margin_right = 95.0
label_text = "Music"

[node name="ChkBoxFx" parent="ColorRect/VBoxContainer" instance=ExtResource( 2 )]
margin_top = 26.0
margin_right = 95.0
margin_bottom = 48.0
label_text = "Sound Fx"

[node name="ChkBoxRumble" parent="ColorRect/VBoxContainer" instance=ExtResource( 2 )]
margin_top = 52.0
margin_right = 95.0
margin_bottom = 74.0
label_text = "Rumble"

[node name="ButtonMainMenu" parent="ColorRect" instance=ExtResource( 3 )]
margin_left = 44.6887
margin_top = 171.207
margin_right = 152.689
margin_bottom = 193.207
button_text = "Back"

[connection signal="gui_input" from="ColorRect/ButtonMainMenu" to="." method="_on_ButtonMainMenu_gui_input"]
